{
  "version": 6,
  "tenantid": "MIU",
  "mobappid": 7626,
  "appName": "MURoomFinder",
  "appDisplayName": "MURoomFinder",
  "homeScreenTemplate": "<style class=\"ng-scope\">\r\n  .promptumenu_window {\r\n    display: none !important;\r\n  }\r\n  \r\n  .verticalSpace {\r\n    margin-top: 25px;\r\n  }\r\n  \r\n  .navbar-absolute-top {\r\n    display: none;\r\n  }\r\n<\/style>\r\n\r\n<script>\r\n  try {\r\n    $(\"#mainSidebar\").css('background', '#232323 !important');\r\n\r\n    if ($.jStorage.get(\"userdetails\") != null && $.jStorage.get(\"userdetails\") != undefined) {\r\n      var e = document.getElementsByClassName(\"app\")[0];\r\n      var $injector = angular.element(e).injector();\r\n      var $location = $injector.get('$location');\r\n      $location.path(\"/app/RoomFinder4/RoomFinder4\");\r\n    } else {\r\n      var e = document.getElementsByClassName(\"app\")[0];\r\n      var $injector = angular.element(e).injector();\r\n      var $location = $injector.get('$location');\r\n      $location.path(\"/app/RoomFinder4/RoomFinder4\");\r\n    }\r\n  } catch (e) {\r\n    alert(e)\r\n  }\r\n<\/script>\r\n\r\n\r\n<script>\r\n  MyCampusApp.rootScope.animatepage = function(currentstyle) {\r\n    $(\".app-body\").addClass(currentstyle);\r\n  }\r\n\r\n  function getRandomInt(min, max) {\r\n    return Math.floor(Math.random() * (max - min + 1)) + min;\r\n  }\r\n  var animstyles = [\"slideInDown\", \"slideInUp\", \"slideInLeft\", \"slideInRight\", \"zoomInUp\", \"zoomInDown\", \"zoomInRight\", \"zoomInLeft\", \"rotateInDownLeft\", \"rotateInDownRight\", \"rotateInUpLeft\", \"rotateInUpRight\", \"bounceInDown\", \"bounceInUp\", \"bounceInRight\", \"bounceInLeft\", \"fadeInDown\", \"fadeInUp\", \"fadeInRight\", \"fadeInLeft\", \"flipInX\", \"flipInY\", \"rollIn\"];\r\n  //MyCampusApp.rootScope.animstyles; = animstyles;\r\n  var currentstyle = \"\";\r\n  var hideInterval = setInterval(function() {\r\n    var animatecss = $(\"#animatecss\");\r\n    if (!animatecss || animatecss.length <= 0) {\r\n      $.ajax({\r\n        url: \"https://raw.githubusercontent.com/daneden/animate.css/master/animate.css\",\r\n        dataType: \"text\",\r\n        success: function(data) {\r\n          $(\"head\").append(\"<style id='animatecss'>\" + data + \"<\/style>\");\r\n          clearInterval(hideInterval);\r\n        }\r\n      });\r\n    }\r\n  }, 2000);\r\n  if (!MyCampusApp.rootScope.cangelistadded) {\r\n    MyCampusApp.rootScope.$on(\"$routeChangeStart\", function(event, next, current) {\r\n      //alert(event);\r\n      //alert(\"route change start\");\r\n      for (var i = 0; i < animstyles.length; i++) {\r\n        $(\".app-body\").removeClass(animstyles[i]);\r\n      }\r\n\r\n      //$(\".app-body\").addClass(\"animated\");\r\n      //$(\".app-body\").addClass(\"slideOutUp\");\r\n\r\n    });\r\n    MyCampusApp.rootScope.$on(\"$routeChangeSuccess\", function(event, next, current) {\r\n      //alert(event);\r\n\r\n      currentstyle = animstyles[getRandomInt(0, 22)];\r\n      //alert(\"route change success \" + currentstyle);\r\n      //$(\".app-body\").addClass(currentstyle);\r\n      //$(\".app-body\").addClass(\"animated\");\r\n      //$(\".app-body\").removeClass(\"slideOutUp\");\r\n    });\r\n    MyCampusApp.rootScope.cangelistadded = true;\r\n  }\r\n\r\n  try {\r\n    //alert(JSON.stringify($.jStorage.get(\"userdetails\")));\r\n\r\n    var profiledata = $.jStorage.get(\"userdetails\");\r\n    if (profiledata != null && profiledata != undefined) {\r\n      MyCampusApp.rootScope.userProfileName = profiledata.firstname + \" \" + profiledata.lastname;\r\n      MyCampusApp.rootScope.useremail = profiledata.email;\r\n      if (profiledata.img == undefined) {\r\n        MyCampusApp.rootScope.userProfilePic = 'images/profileImage.png';\r\n        MyCampusApp.rootScope.showUploadPhoto = true;\r\n      } else {\r\n        MyCampusApp.rootScope.userProfilePic = profiledata.img;\r\n        MyCampusApp.rootScope.showUploadPhoto = false;\r\n      }\r\n      if (profiledata.studentRole == '' || profiledata.studentRole == undefined) {\r\n        MyCampusApp.rootScope.studentRole = \"Role\";\r\n      } else {\r\n        MyCampusApp.rootScope.studentRole = profiledata.studentRole;\r\n      }\r\n    }\r\n  } catch (e) {\r\n    alert(e)\r\n  }\r\n\r\n  try {\r\n    var tenantID = \"GTU\";\r\n\r\n    var data = {\r\n      tenant: tenantID,\r\n      max: 20,\r\n      offset: 0\r\n    };\r\n    //$.jStorage.set(\"pushOldCounts\",0);\r\n    var xhr = $.ajax({\r\n      url: \"https://kryptos.kryptosmobile.com/gateway/CEAI/kryptospushlog\",\r\n      contentType: 'application/json',\r\n      type: \"POST\",\r\n      headers: {\r\n        'licenseKey': 'UjpIaWVDVzpTOjE0NDk0ODk2MzUxMzE6VTpha0BjYW1wdXNlYWkub3JnOlQ6NDpQOjI4Ng=='\r\n      },\r\n      data: JSON.stringify(data),\r\n      success: function(data) {\r\n        MyCampusApp.rootScope.pushCounts = data.paging.total;\r\n        MyCampusApp.rootScope.pushData = data;\r\n\r\n        var oldCounts = $.jStorage.get(\"pushOldCounts\");\r\n\r\n        if (oldCounts == null || oldCounts == undefined) {\r\n          //var oldCounts = $rootScope.pushCounts;\r\n          MyCampusApp.rootScope.NewPush = MyCampusApp.rootScope.pushCounts;\r\n          //$.jStorage.set(\"pushOldCounts\",$rootScope.pushCounts);\r\n        } else {\r\n          var oldCounts = $.jStorage.get(\"pushOldCounts\");\r\n          MyCampusApp.rootScope.NewPush = MyCampusApp.rootScope.pushCounts - oldCounts;\r\n          //$.jStorage.set(\"pushOldCounts\",$rootScope.pushCounts);\r\n        }\r\n\r\n        if (MyCampusApp.rootScope.NewPush <= 0) {\r\n          MyCampusApp.rootScope.ShowPushCounts = false;\r\n        } else {\r\n          MyCampusApp.rootScope.ShowPushCounts = true;\r\n        }\r\n        //alert($rootScope.NewPush);\r\n        MyCampusApp.rootScope.notificationCounts = MyCampusApp.rootScope.NewPush;\r\n      },\r\n      error: function(err) {}\r\n    });\r\n  } catch (e) {\r\n    alert(e)\r\n  }\r\n\r\n  var onBackKeyDown = function(event) {\r\n    if ($(\"body\").hasClass(\"sidebar-left-in\")) {\r\n      event.preventDefault();\r\n      MyCampusApp.rootScope.toggle(\"mainSidebar\");\r\n      if (MyCampusApp.rootScope.blackOverlay == false) {\r\n        MyCampusApp.rootScope.blackOverlay = true;\r\n        MyCampusApp.rootScope.$apply();\r\n      } else {\r\n        MyCampusApp.rootScope.blackOverlay = false;\r\n        MyCampusApp.rootScope.$apply();\r\n      }\r\n      return;\r\n    } else {\r\n\r\n      var loc = window.location;\r\n\r\n      if (loc.hash == \"#/app/Home4/Home4\" || loc.hash == \"#/app/SignIn2/SignIn2\") {\r\n        navigator.app.exitApp();\r\n        /*var onConfirm = function(buttonIndex) {\r\n            if (buttonIndex == 1) {\r\n                \r\n            }\r\n        };\r\n        if (window.device) {\r\n            navigator.notification.confirm(\r\n                'Are you sure you want to exit?', // message\r\n                onConfirm, // callback to invoke with index of button pressed\r\n                'Just Confirming', // title\r\n                ['Yes', 'No'] // buttonLabels\r\n            );\r\n        } else {\r\n            apprise(\"Are you sure you want to exit?\", {\r\n                'verify': true,\r\n                'textYes': \"Yes\",\r\n                'textNo': \"No\"\r\n            }, function(r) {\r\n                if (r) {\r\n                    navigator.app.exitApp();\r\n                } else MyCampusApp.modalDialogDisplayed = false;\r\n            });\r\n        }*/\r\n      } else if (loc.hash == \"#/app/IIITDMobile/IIITDMobile\") {\r\n        //alert(\"signuo\");\r\n      } else {\r\n        navigator.app.backHistory();\r\n      }\r\n    }\r\n\r\n  }\r\n  document.addEventListener(\"backbutton\", onBackKeyDown, true);\r\n<\/script>",
  "middlewareServerUrl": null,
  "feedbackEmail": null,
  "backgroundurl": "MIU/background.png",
  "brandingurl": "MIU/branding.png",
  "customStyle": "#branding {\r\n  display: none;\r\n}\r\n\r\n#mainSidebar .list-group .active {\r\n  box-shadow: 0 0 0 0;\r\n}\r\n\r\n#mainSidebar .list-group-item {\r\n  border-color: #434443 !important;\r\n  border-bottom: 1px solid #434443 !important;\r\n}\r\n\r\n.navbar .navbar-brand-center {\r\n  font-weight: bold;\r\n}\r\n\r\n.navbar {\r\n  box-shadow: 0 0 0 0 !important;\r\n}\r\n\r\n.navbar .fa-user {\r\n  display: none;\r\n}\r\n\r\n.navbar .sidebar-toggle .fa-bars,\r\n.navbar .btn-navbar .fa-chevron-circle-left,\r\n.navbar .btn-navbar .fa-lock,\r\n.navbar .btn-navbar .fa-unlock {\r\n  vertical-align: middle;\r\n}\r\n\r\n#branding {\r\n  position: absolute !important;\r\n  bottom: 35px !important;\r\n  left: 0px !important;\r\n  right: 0px !important;\r\n  width: 60% !important;\r\n  margin: auto !important;\r\n}\r\n\r\nbody {\r\n  position: absolute;\r\n  width: 100%;\r\n  height: 100%;\r\n  background-size: 100% 100% !important;\r\n}\r\n\r\n.icon {\r\n  width: 56px;\r\n  height: 56px;\r\n}\r\n\r\n.campuseai-Info {\r\n  color: white;\r\n  font-weight: bold;\r\n}\r\n\r\n.dockicon:after {\r\n  bottom: 0px !important;\r\n}\r\n\r\n.dockicon {\r\n  margin-bottom: 25px !important;\r\n}\r\n\r\n.blockUI i {\r\n  color: white !important;\r\n}\r\n\r\n.promptumenu_nav a.active {\r\n  background: #DB7508;\r\n  border-radius: 50%;\r\n  width: 10px;\r\n  height: 10px;\r\n}\r\n\r\n.promptumenu_nav a {\r\n  background: #fff;\r\n  border-radius: 50%;\r\n  width: 10px;\r\n  height: 10px;\r\n}\r\n\r\n.promptumenu_window {\r\n  overflow: visible !important;\r\n}\r\n\r\n.promptumenu_nav {\r\n  margin-bottom: -12px;\r\n}\r\n\r\n.app-body {\r\n  padding-bottom: 0px !important;\r\n}\r\n\r\n.blockUI {\r\n  margin: auto !important;\r\n  left: 0px !important;\r\n  right: 0px !important;\r\n  width: auto !important;\r\n}\r\n\r\n#homedata .campuseai-Info {\r\n  width: 76px !important;\r\n  margin-left: -10px;\r\n  /*text-shadow:0 2px 2px #000;*/\r\n}\r\n\r\n@media (min-width: 320px) and (max-width: 480px) {\r\n  .icon {\r\n    width: 56px !important;\r\n    height: 56px !important;\r\n  }\r\n  #homedata .campuseai-Info {\r\n    width: 76px !important;\r\n    margin-left: -10px;\r\n  }\r\n}\r\n\r\n@media (min-width: 320px) and (max-width: 568px) {\r\n  .icon {\r\n    width: 75px !important;\r\n    height: 75px !important;\r\n    padding: 5px !important;\r\n  }\r\n  #homedata .campuseai-Info {\r\n    width: 96px !important;\r\n    font-size: 13px;\r\n    margin-top: 2px;\r\n    margin-left: -10px;\r\n    margin-right: -10px;\r\n    line-height: 14px !important;\r\n    height: 30px !important;\r\n    padding: 0 4px !important;\r\n  }\r\n}\r\n\r\n@media (min-width: 768px) {\r\n  #branding {\r\n    width: 40% !important;\r\n    margin: auto;\r\n  }\r\n  .icon {\r\n    width: 102px !important;\r\n    height: 102px !important;\r\n  }\r\n  #homedata .campuseai-Info {\r\n    width: 120px !important;\r\n    margin-left: -10px;\r\n    margin-right: -10px;\r\n    font-weight: bold;\r\n  }\r\n}\r\n\r\n#devicebranding,\r\n#aboutbranding,\r\n#settingsbranding,\r\n#loginbranding {\r\n  margin: 10px 0;\r\n  width: 50% !important;\r\n}\r\n\r\n@media all and (orientation:landscape) {\r\n  #branding {\r\n    width: 35% !important;\r\n  }\r\n  #devicebranding,\r\n  #aboutbranding,\r\n  #settingsbranding,\r\n  #loginbranding {\r\n    margin: 10px 0;\r\n    width: 35% !important;\r\n  }\r\n  .promptumenu_nav {\r\n    margin-bottom: -15px !important;\r\n  }\r\n  #homedata .campuseai-Info {\r\n    line-height: 12.5px !important;\r\n    font-size: 11px !important;\r\n    height: 25px !important;\r\n  }\r\n  .icon {\r\n    padding: 8px;\r\n  }\r\n}\r\n\r\n.navbar {\r\n  box-shadow: 0 0 10px #c89844;\r\n}\r\n\r\na:active {\r\n  opacity: 1 !important;\r\n}\r\n\r\n@media only screen and (min-device-width: 768px) and (max-device-width: 1024px) and (orientation: portrait) {\r\n  .icon {\r\n    margin: 0 10px;\r\n  }\r\n  #homedata .campuseai-Info {\r\n    width: 120px !important;\r\n    height: 30px;\r\n    line-height: 14px;\r\n    font-weight: bold;\r\n    margin-left: 0px;\r\n    margin-right: 0px\r\n  }\r\n}\r\n\r\n.navbar-app,\r\n.navbar-brand {}\r\n\r\n.navbar-brand {\r\n  width: 100%;\r\n}\r\n\r\n#mainSidebar .list-group-item {\r\n  border-color: #c89844 !important;\r\n  border-bottom: 1px solid #c89844 !important;\r\n}\r\n\r\n#mainSidebar .list-group .active {\r\n  box-shadow: 0 0 10px #000;\r\n}\r\n\r\np,\r\nli {\r\n  text-align: justify !important;\r\n}\r\n\r\n.sidebar-scrollable .scrollable-content .list-group a.list-group-item .fa.pull-right,\r\n#troubleshootbtn fa-chevron-right,\r\n#helpbtn .fa-chevron-right,\r\n#aboutbtn .fa-chevron-right,\r\n#deviceinfobtn .fa-chevron-right,\r\n#sendfeedbackbtn .fa-chevron-right,\r\n#reportissuebtn .fa-chevron-right {\r\n  margin-top: 8px !important;\r\n}\r\n\r\n.panel-primary,\r\n.panel-heading {\r\n  background-color: #3EACA9 !important;\r\n  border-color: #3EACA9 !important;\r\n}\r\n\r\n.panel-heading {\r\n  color: #FFF !important;\r\n}\r\n\r\n\r\n/*.app-body{\r\nbackground: rgba(0, 0, 0, 0.5);\r\n}*/\r\n\r\n#mainSidebar a {\r\n  padding: 5px 0 4px 9px !important;\r\n}\r\n\r\n.notificationCount {\r\n  margin-top: 13px !important;\r\n}\r\n\r\n@media only screen and (min-device-width: 320px) and (max-device-width: 568px) {\r\n  #mainSidebar a {\r\n    padding: 8px 0 8px 9px !important;\r\n  }\r\n}\r\n\r\n.ng-scope {\r\n  margin-bottom: 0px !important;\r\n}\r\n\r\n.btn-block {\r\n  background-color: #0E489A !important;\r\n  background: #0E489A !important;\r\n}\r\n\r\n.linkColor {\r\n  color: #DF720B !important;\r\n}\r\n\r\n#mainSidebar .list-group .active {\r\n  box-shadow: 0 0 0 0;\r\n}\r\n\r\n#mainSidebar .list-group-item {\r\n  border-bottom: 1px solid #e6e6e6 !important;\r\n}\r\n\r\n.sidebar,\r\n#mainSidebar {\r\n  background: #232323 !important;\r\n}\r\n\r\n@import url('https://fonts.googleapis.com/css?family=Open+Sans:300italic,400italic,700italic,300,400,700');\r\n.openSans {\r\n  font-family: 'Open Sans', sans-serif;\r\n}\r\n\r\n.switch-handle {\r\n  border-color: #efefef !important;\r\n}\r\n\r\n.switch.active {\r\n  background-color: #DF720B;\r\n  border: 1px solid #efefef;\r\n}\r\n\r\n#mainSidebar {\r\n  background: #fff !important;\r\n}\r\n\r\n.navbar-app {\r\n  background: #0E489A !important;\r\n}\r\n\r\n#mainSidebar a:first-child {\r\n  background: #DF720B !important;\r\n  color: #fff !important;\r\n}\r\n\r\n.footerGroupIcons {\r\n  background: #fff !important;\r\n  border-top: 1px solid #bbb;\r\n}\r\n\r\n#fixedHeaderContent {\r\n  position: fixed;\r\n  top: 70px;\r\n  width: 100%;\r\n  z-index: 100;\r\n}\r\n\r\n#fixedFooterContent {\r\n  position: fixed;\r\n  bottom: 9%;\r\n  width: 100%;\r\n  z-index: 100;\r\n}\r\n\r\na.list-group-item.active,\r\na.list-group-item.active:focus,\r\na.list-group-item.active:hover {\r\n  background-color: #fff;\r\n  color: #000;\r\n}\r\n\r\n.footerGroupIcons {\r\n  display: block !important;\r\n}\r\n\r\n.btn {\r\n  border-radius: 6px !important;\r\n}\r\n\r\n.picEditBtn {\r\n  text-align: center;\r\n  background: rgb(255, 255, 255) none repeat scroll 0% 0%;\r\n  border-radius: 50%;\r\n  position: absolute;\r\n  z-index: 100;\r\n  right: 35%;\r\n  bottom: 36%;\r\n  width: 24px;\r\n  height: 24px;\r\n}\r\n\r\n.picEditBtn i {\r\n  margin-top: 7px !important;\r\n}.navbar-app, .sidebar, #mainSidebar { background : #1e1ea1 !important; } .navbar-brand, .navbar-absolute-top .btn-navbar { color : #ffffff !important; } .navbar-absolute-bottom .navbar-inverse { background :  !important; } .navbar-absolute-bottom .navbar-inverse { color :  !important; } .app { background :  !important; } .campuseai-Info { color :  !important; } #mainSidebar .list-group-item { background :  !important; } #mainSidebar .list-group-item { color :  !important; } #mainSidebar .appgroup { background :  !important; } #mainSidebar .appgroup { color :  !important; } .btn-primary { background :  !important; } .btn-primary { color :  !important; } .btn-primary { border-color :  !important; } ",
  "authFunction": "function authFunction(uname, password, $http, $rootScope, success, error) {\r\n  alert (\"Tenant from Mycampus : \" + MyCampusApp.config.tenant);\r\n  alert (\"Tenant from Jstorage : \" + $.jStorage.get('tenant'));\r\n  $.jStorage.deleteKey('tenant');\r\n    var authSuccess = success;\r\n    var authError = error;\r\n    //Peoplesoft authentication\r\n    /*\r\n    var url = $rootScope.middlewareServerUrl + \"/services/ps/psholds\";\r\n    var data = {};\r\n    if (window.device) {\r\n        data = \"userId=\" + uname + \"&password=\" + password;\r\n    } else {\r\n        url = \"/websimulator/json?url=\" + url;\r\n        data = {\r\n            method: \"POST\",\r\n            body: \"userId=\" + uname + \"&password=\" + password\r\n        };\r\n    }\r\n    $.blockUI({\r\n        message: '<div style=\"margin: 2px; vertical-align: middle; display: inline-block\"><i class=\"icon-cog icon-spin icon-4x\"><\/i><h3>Authenticating<\/h3><\/div>'\r\n    });\r\n    alert(\"URL : \" + url);\r\n    $http.post(url, data).success(function (data, status, headers, config) {\r\n        success(data);\r\n        $.unblockUI();\r\n    }).error(function (data, status, headers, config) {\r\n        error(data);\r\n        $.unblockUI();\r\n    });\r\n*/\r\n    //Banner Authentication with CAS\r\n\r\n    /*var url = \"https://my.curry.edu/cas/v1/tickets/\";\r\n    var data = {};\r\n    if (window.device) {\r\n        data = \"username=\" + uname + \"&password=\" + password;\r\n    } else {\r\n        url = \"/websimulator/text?url=\" + url;\r\n        data = {\r\n            method: \"POST\",\r\n            body: \"username=\" + uname + \"&password=\" + password\r\n        };\r\n    }\r\n\r\n    $rootScope.generateST = function (tgt, service, callback) {\r\n        var data = {};\r\n        if (window.device) {\r\n            data = \"service=\" + service;\r\n        } else {\r\n            url = \"/websimulator/text?url=\" + \"https://my.curry.edu/cas/v1/tickets/\";\r\n            data = {\r\n                method: \"POST\",\r\n                body: \"service=\" + service\r\n            };\r\n        }\r\n\r\n        $.ajax({\r\n            url: url + tgt,\r\n            type: \"POST\",\r\n            async: true,\r\n            data: data,\r\n            error: function (response) {\r\n                alert(\"Error : \" + response);\r\n\r\n            },\r\n            success: function (data) {\r\n                //alert(\"Success : \" + data);\r\n                callback(data);\r\n            }\r\n        });\r\n\r\n    };\r\n\r\n    $.blockUI({\r\n        message: '<div style=\"margin: 2px; vertical-align: middle; display: inline-block\"><i class=\"icon-cog icon-spin icon-4x\"><\/i><h3>Authenticating<\/h3><\/div>'\r\n    });\r\n    $.ajax({\r\n        url: url,\r\n        type: \"POST\",\r\n        async: true,\r\n        data: data,\r\n        error: function (response) {\r\n            $.unblockUI();\r\n        },\r\n        success: function (data) {\r\n            //alert(\"Success : \" + data);\r\n            $.unblockUI();\r\n\r\n        },\r\n        complete: function (response, textStatus) {\r\n            //alert(\"complete : \" + response + \"  text status : \" + textStatus);\r\n            $.unblockUI();\r\n            if (textStatus == \"success\" && response.status == 201) {\r\n                var str = response.getResponseHeader('Location');\r\n                var tgtTicket = str.substr(str.lastIndexOf('/') + 1);\r\n                //generateST(tgtTicket);\r\n                success({\r\n                    \"ticket\": tgtTicket\r\n                });\r\n                $rootScope.$apply(function () {\r\n\r\n                    $rootScope.setRoute(\"/home\");\r\n\r\n                });\r\n\r\n\r\n            } else {\r\n                success({\r\n                    \"error\": \"Oops! Cannot log you in. Please check your login details.\"\r\n                });\r\n            }\r\n        }\r\n\r\n    });*/\r\n\r\n\r\n    //Banner Authentication with LDAP - middlware auth\r\n\r\n    var url = $rootScope.middlewareServerUrl + \"/bannermobile2/services/authenticate/login\";\r\n    var data = {};\r\n    if (window.device) {\r\n        data = \"username=\" + uname + \"&password=\" + password;\r\n    } else {\r\n        url = \"/websimulator/json?url=\" + url;\r\n        data = {\r\n            method: \"POST\",\r\n            body: \"username=\" + uname + \"&password=\" + password\r\n        };\r\n    }\r\n    var authUrl = url;\r\n    var authData = data;\r\n    $rootScope.generateST = function(tgt, service, callback) {\r\n        //Bypassing the ST as there is no service ticket required here..\r\n        callback(tgt);\r\n    };\r\n\r\n    $rootScope.postAPI = function(endpoint, postdata, callback) {\r\n        $.blockUI();\r\n        $rootScope.generateST($rootScope.ticket, endpoint, function(st) {\r\n            var serviceurl = endpoint + \"?ticket=\" + st;\r\n            var url = \"\";\r\n            var proxyMethod = \"POST\";\r\n            var proxyData = postdata;\r\n            if (window.device) {\r\n                url = serviceurl;\r\n            } else {\r\n                url = \"/websimulator/json?url=\" + serviceurl;\r\n                proxyMethod = \"POST\";\r\n                proxyData = {\r\n                    method: \"POST\",\r\n                    body: postdata\r\n                }\r\n            }\r\n            $http({\r\n                method: proxyMethod,\r\n                url: url,\r\n                data: proxyData\r\n            }).\r\n            success(function(data, status, headers, config) {\r\n                $.unblockUI();\r\n                callback(data, status, headers, config);\r\n            }).\r\n            error(function(data, status, headers, config) {\r\n                $.unblockUI();\r\n                //alert(\"Error in service call : \" + data + \" Status : \" + status);\r\n                if (status == 403) { //Ticket expired.. need to relogin\r\n                    $http.post(authUrl, authData).success(function(data, status, headers, config) {\r\n                        authSuccess(data);\r\n                        $rootScope.getAPI(endpoint, callback);\r\n                    }).error(function(data, status, headers, config) {\r\n                        authError(data);\r\n\r\n                    });\r\n                }\r\n\r\n            });\r\n\r\n        });\r\n\r\n    };\r\n\r\n    $rootScope.getAPI = function(endpoint, callback) {\r\n        $.blockUI();\r\n        $rootScope.generateST($rootScope.ticket, endpoint, function(st) {\r\n            var serviceurl = endpoint + \"?ticket=\" + st;\r\n            var url = \"\";\r\n            var proxyMethod = \"GET\";\r\n            var proxyData = {};\r\n            if (window.device) {\r\n                url = serviceurl;\r\n            } else {\r\n                url = \"/websimulator/json?url=\" + encodeURIComponent(serviceurl);\r\n                proxyMethod = \"POST\";\r\n                proxyData = {\r\n                    method: \"GET\"\r\n                }\r\n            }\r\n            $http({\r\n                method: proxyMethod,\r\n                url: url,\r\n                data: proxyData\r\n            }).\r\n            success(function(data, status, headers, config) {\r\n                $.unblockUI();\r\n                callback(data, status, headers, config);\r\n            }).\r\n            error(function(data, status, headers, config) {\r\n                $.unblockUI();\r\n                //alert(\"Error in service call : \" + data + \" Status : \" + status);\r\n                if (status == 403) { //Ticket expired.. need to relogin\r\n                    $http.post(authUrl, authData).success(function(data, status, headers, config) {\r\n                        authSuccess(data);\r\n                        $rootScope.getAPI(endpoint, callback);\r\n                    }).error(function(data, status, headers, config) {\r\n                        authError(data);\r\n\r\n                    });\r\n                }\r\n\r\n            });\r\n\r\n        });\r\n\r\n    };\r\n\r\n\r\n\r\n\r\n    $.blockUI({\r\n        message: '<div style=\"margin: 2px; vertical-align: middle; display: inline-block\"><i class=\"icon-cog icon-spin icon-4x\"><\/i><h3>Authenticating<\/h3><\/div>'\r\n    });\r\n\r\n    $http.post(url, data).success(function(data, status, headers, config) {\r\n        success(data);\r\n        $.unblockUI();\r\n    }).error(function(data, status, headers, config) {\r\n        error(data);\r\n        $.unblockUI();\r\n    });\r\n\r\n}",
  "forgotPasswordUrl": null,
  "portalGatewayUrl": null,
  "siteid": null,
  "loginaslanding": false,
  "reportissueEmail": null,
  "iconWidth": 70,
  "apps": 
  [
    {
      "id": 108744,
      "name": "RoomFinder4",
      "displayname": "Room Finder",
      "logo": "MIU/RoomFinder4.png",
      "logourl": "MIU/RoomFinder4.png",
      "description": "Room Finder",
      "appFeatureType": "Public",
      "roles": null,
      "showInDock": false,
      "showInHome": true,
      "networkrequired": true,
      "analytics": false,
      "pages": 
      [
        {
          "pageid": "RoomFinder4",
          "pageTemplate": "<div><\/div>",
          "pageprocessor": "function pageprocessorRoomFinder4(pagedef, $scope, $routeParams, $compile, $http, $rootScope, $sce, $window, $location) {\r\n\r\n    var data1 = $compile($(pagedef.datatemplate))($scope);\r\n    $(\"#appContent\").append(data1);\r\n    $scope.filterAll = \"All\";\r\n    $scope.fl1 = \"All\";\r\n    $scope.fl2 = \"All\";\r\n    $scope.allfloor = function (item) {\r\n        if ($scope.filterAll == \"All\") {\r\n            return true;\r\n        } else if ($scope.filterAll == \"A\") {\r\n            return item.AVAILABILITY == 0;\r\n        } else if ($scope.filterAll == \"O\") {\r\n            return item.AVAILABILITY == 1;\r\n        }\r\n    };\r\n    $scope.floor1 = function (item) {\r\n        if (item.LOCATION != 'MOTION-1-UNI') {\r\n            return false;\r\n        }\r\n        if ($scope.fl1 == \"All\") {\r\n            return true;\r\n        } else if ($scope.fl1 == \"A\") {\r\n            return item.AVAILABILITY == 0;\r\n        } else if ($scope.fl1 == \"O\") {\r\n            return item.AVAILABILITY == 1;\r\n        }\r\n    };\r\n    $scope.floor2 = function (item) {\r\n        if (item.LOCATION != 'MOTION-2-UNI') {\r\n            return false;\r\n        }\r\n        if ($scope.fl2 == \"All\") {\r\n            return true;\r\n        } else if ($scope.fl2 == \"A\") {\r\n            return item.AVAILABILITY == 0;\r\n        } else if ($scope.fl2 == \"O\") {\r\n            return item.AVAILABILITY == 1;\r\n        }\r\n    };\r\n    $scope.roomsavailable=[\r\n        {\r\n            \"ROOM\": \"Uni-242\",\r\n            \"AVAILABILITY\": 1,\r\n            \"LOCATION\": \"MOTION-1-UNI\"\r\n        },\r\n        {\r\n            \"ROOM\": \"Uni-243\",\r\n            \"AVAILABILITY\": 0,\r\n            \"LOCATION\": \"MOTION-1-UNI\"\r\n        },\r\n        {\r\n            \"ROOM\": \"Uni-244\",\r\n            \"AVAILABILITY\": 0,\r\n            \"LOCATION\": \"MOTION-1-UNI\"\r\n        },\r\n        {\r\n            \"ROOM\": \"Uni-245\",\r\n            \"AVAILABILITY\": 1,\r\n            \"LOCATION\": \"MOTION-1-UNI\"\r\n        },\r\n        {\r\n            \"ROOM\": \"Uni-246\",\r\n            \"AVAILABILITY\": 0,\r\n            \"LOCATION\": \"MOTION-1-UNI\"\r\n        },\r\n        {\r\n            \"ROOM\": \"Uni-247\",\r\n            \"AVAILABILITY\": 0,\r\n            \"LOCATION\": \"MOTION-1-UNI\"\r\n        },\r\n        {\r\n            \"ROOM\": \"Uni-250-Main\",\r\n            \"AVAILABILITY\": 0,\r\n            \"LOCATION\": \"MOTION-1-UNI\"\r\n        },\r\n        {\r\n            \"ROOM\": \"Uni-251\",\r\n            \"AVAILABILITY\": 0,\r\n            \"LOCATION\": \"MOTION-1-UNI\"\r\n        },\r\n        {\r\n            \"ROOM\": \"Uni-252\",\r\n            \"AVAILABILITY\": 0,\r\n            \"LOCATION\": \"MOTION-1-UNI\"\r\n        },\r\n        {\r\n            \"ROOM\": \"Uni-253\",\r\n            \"AVAILABILITY\": 0,\r\n            \"LOCATION\": \"MOTION-1-UNI\"\r\n        },\r\n        {\r\n            \"ROOM\": \"Uni-258\",\r\n            \"AVAILABILITY\": 0,\r\n            \"LOCATION\": \"MOTION-1-UNI\"\r\n        },\r\n        {\r\n            \"ROOM\": \"Uni-259\",\r\n            \"AVAILABILITY\": 0,\r\n            \"LOCATION\": \"MOTION-1-UNI\"\r\n        },\r\n        {\r\n            \"ROOM\": \"Uni-260\",\r\n            \"AVAILABILITY\": 1,\r\n            \"LOCATION\": \"MOTION-1-UNI\"\r\n        },\r\n        {\r\n            \"ROOM\": \"Uni-261\",\r\n            \"AVAILABILITY\": 0,\r\n            \"LOCATION\": \"MOTION-1-UNI\"\r\n        },\r\n        {\r\n            \"ROOM\": \"Uni-264\",\r\n            \"AVAILABILITY\": 0,\r\n            \"LOCATION\": \"MOTION-1-UNI\"\r\n        },\r\n        {\r\n            \"ROOM\": \"Uni-265\",\r\n            \"AVAILABILITY\": 0,\r\n            \"LOCATION\": \"MOTION-1-UNI\"\r\n        },\r\n        {\r\n            \"ROOM\": \"Uni-266\",\r\n            \"AVAILABILITY\": 0,\r\n            \"LOCATION\": \"MOTION-1-UNI\"\r\n        },\r\n        {\r\n            \"ROOM\": \"Uni-267-Eno\",\r\n            \"AVAILABILITY\": 0,\r\n            \"LOCATION\": \"MOTION-1-UNI\"\r\n        },\r\n        {\r\n            \"ROOM\": \"Uni-269-Eno\",\r\n            \"AVAILABILITY\": 1,\r\n            \"LOCATION\": \"MOTION-1-UNI\"\r\n        },\r\n        {\r\n            \"ROOM\": \"Uni-342\",\r\n            \"AVAILABILITY\": 0,\r\n            \"LOCATION\": \"MOTION-2-UNI\"\r\n        },\r\n        {\r\n            \"ROOM\": \"UNI-343\",\r\n            \"AVAILABILITY\": 0,\r\n            \"LOCATION\": \"MOTION-2-UNI\"\r\n        },\r\n        {\r\n            \"ROOM\": \"Uni-344\",\r\n            \"AVAILABILITY\": \"\",\r\n            \"LOCATION\": \"MOTION-2-UNI\"\r\n        },\r\n        {\r\n            \"ROOM\": \"Uni-345\",\r\n            \"AVAILABILITY\": 0,\r\n            \"LOCATION\": \"MOTION-2-UNI\"\r\n        },\r\n        {\r\n            \"ROOM\": \"Uni-346\",\r\n            \"AVAILABILITY\": 1,\r\n            \"LOCATION\": \"MOTION-2-UNI\"\r\n        },\r\n        {\r\n            \"ROOM\": \"Uni-347\",\r\n            \"AVAILABILITY\": 1,\r\n            \"LOCATION\": \"MOTION-2-UNI\"\r\n        },\r\n        {\r\n            \"ROOM\": \"UNI-350\",\r\n            \"AVAILABILITY\": 0,\r\n            \"LOCATION\": \"MOTION-2-UNI\"\r\n        },\r\n        {\r\n            \"ROOM\": \"Uni-353\",\r\n            \"AVAILABILITY\": 0,\r\n            \"LOCATION\": \"MOTION-2-UNI\"\r\n        },\r\n        {\r\n            \"ROOM\": \"Uni-354\",\r\n            \"AVAILABILITY\": 0,\r\n            \"LOCATION\": \"MOTION-2-UNI\"\r\n        },\r\n        {\r\n            \"ROOM\": \"Uni-355\",\r\n            \"AVAILABILITY\": \"\",\r\n            \"LOCATION\": \"MOTION-2-UNI\"\r\n        },\r\n        {\r\n            \"ROOM\": \"UNI-358\",\r\n            \"AVAILABILITY\": 0,\r\n            \"LOCATION\": \"MOTION-2-UNI\"\r\n        },\r\n        {\r\n            \"ROOM\": \"UNI-359\",\r\n            \"AVAILABILITY\": 0,\r\n            \"LOCATION\": \"MOTION-2-UNI\"\r\n        },\r\n        {\r\n            \"ROOM\": \"UNI-360\",\r\n            \"AVAILABILITY\": \"\",\r\n            \"LOCATION\": \"MOTION-2-UNI\"\r\n        },\r\n        {\r\n            \"ROOM\": \"UNI-361\",\r\n            \"AVAILABILITY\": 0,\r\n            \"LOCATION\": \"MOTION-2-UNI\"\r\n        },\r\n        {\r\n            \"ROOM\": \"UNI-362\",\r\n            \"AVAILABILITY\": \"\",\r\n            \"LOCATION\": \"MOTION-2-UNI\"\r\n        },\r\n        {\r\n            \"ROOM\": \"Uni-366\",\r\n            \"AVAILABILITY\": 0,\r\n            \"LOCATION\": \"MOTION-2-UNI\"\r\n        },\r\n        {\r\n            \"ROOM\": \"UNI-370\",\r\n            \"AVAILABILITY\": \"\",\r\n            \"LOCATION\": \"MOTION-2-UNI\"\r\n        },\r\n        {\r\n            \"ROOM\": \"UNI-380\",\r\n            \"AVAILABILITY\": 0,\r\n            \"LOCATION\": \"MOTION-2-UNI\"\r\n        },\r\n        {\r\n            \"ROOM\": \"UNI-381\",\r\n            \"AVAILABILITY\": 0,\r\n            \"LOCATION\": \"MOTION-2-UNI\"\r\n        },\r\n        {\r\n            \"ROOM\": \"UNI-382\",\r\n            \"AVAILABILITY\": 0,\r\n            \"LOCATION\": \"MOTION-2-UNI\"\r\n        },\r\n        {\r\n            \"ROOM\": \"Uni-382 ~ Pre DM\",\r\n            \"AVAILABILITY\": \"\",\r\n            \"LOCATION\": \"MOTION-2-UNI\"\r\n        },\r\n        {\r\n            \"ROOM\": \"UNI-Amica-Presentation\",\r\n            \"AVAILABILITY\": \"\",\r\n            \"LOCATION\": \"MOTION-1-UNI\"\r\n        },\r\n        {\r\n            \"ROOM\": \"Uni-Gulski\",\r\n            \"AVAILABILITY\": 0,\r\n            \"LOCATION\": \"MOTION-2-UNI\"\r\n        },\r\n        {\r\n            \"ROOM\": \"Uni-M31\",\r\n            \"AVAILABILITY\": 0,\r\n            \"LOCATION\": \"MOTION-2-UNI\"\r\n        },\r\n        {\r\n            \"ROOM\": \"Uni-M33\",\r\n            \"AVAILABILITY\": \"\",\r\n            \"LOCATION\": \"MOTION-2-UNI\"\r\n        },\r\n        {\r\n            \"ROOM\": \"Uni-M36\",\r\n            \"AVAILABILITY\": 1,\r\n            \"LOCATION\": \"MOTION-2-UNI\"\r\n        },\r\n        {\r\n            \"ROOM\": \"Uni-M37\",\r\n            \"AVAILABILITY\": 0,\r\n            \"LOCATION\": \"MOTION-2-UNI\"\r\n        },\r\n        {\r\n            \"ROOM\": \"Uni-M38\",\r\n            \"AVAILABILITY\": \"\",\r\n            \"LOCATION\": \"MOTION-2-UNI\"\r\n        },\r\n        {\r\n            \"ROOM\": \"Uni-M39\",\r\n            \"AVAILABILITY\": \"\",\r\n            \"LOCATION\": \"MOTION-2-UNI\"\r\n        },\r\n        {\r\n            \"ROOM\": \"Uni-M41\",\r\n            \"AVAILABILITY\": 0,\r\n            \"LOCATION\": \"MOTION-2-UNI\"\r\n        },\r\n        {\r\n            \"ROOM\": \"Uni-MRC3\",\r\n            \"AVAILABILITY\": \"\",\r\n            \"LOCATION\": \"MOTION-1-UNI\"\r\n        },\r\n        {\r\n            \"ROOM\": \"Uni-MRC4\",\r\n            \"AVAILABILITY\": \"\",\r\n            \"LOCATION\": \"MOTION-1-UNI\"\r\n        }\r\n    ];\r\n}",
          "datatemplate": "<style>\r\n  #branding1 {\r\n    display: none;\r\n  }\r\n  \r\n  .backgroundColor {\r\n    background-color: #F1F5F8;\r\n    background: #F1F5F8;\r\n  }\r\n  \r\n  .btn-group > .btn-default.active,\r\n  .btn-group > .btn-default.active:focus,\r\n  .btn-group > .btn-default.active:hover {\r\n    background-color: white;\r\n    background: white;\r\n    border: 0;\r\n    color: #3d8ae0;\r\n  }\r\n  \r\n  .btn-group > .btn-default:hover {\r\n    background-color: white;\r\n    background: white;\r\n    border: 0;\r\n  }\r\n  \r\n  .leftTab {\r\n    border-top-left-radius: 23px;\r\n    border-bottom-left-radius: 23px;\r\n    border-right: 1px solid #ebebeb;\r\n  }\r\n  \r\n  .noBorder {\r\n    border: 0;\r\n  }\r\n  \r\n  .rightTab {\r\n    border-top-right-radius: 23px;\r\n    border-bottom-right-radius: 23px;\r\n    border-left: 1px solid #ebebeb;\r\n  }\r\n  \r\n  .Bg0 {\r\n    color: #000;\r\n  }\r\n  \r\n  .Bg1 {\r\n    color: red;\r\n  }\r\n<\/style>\r\n\r\n<div class=\"backgroundColor\">\r\n  <div class=\"btn-group justified nav-tabs\" style=\"padding: 10px 15px;\">\r\n    <a class=\"btn btn-default noBorder leftTab\" href=\"#Tab1\" toggle=\"on\" active-class=\"active\" style=\"border-right: 1px solid #ebebeb\r\n\">All Floors\r\n        <\/a>\r\n\r\n    <a class=\"btn btn-default noBorder\" href=\"#Tab2\" toggle=\"on\" active-class=\"active\">1st Floor\r\n        <\/a>\r\n\r\n    <a class=\"btn btn-default noBorder rightTab\" href=\"#Tab3\" toggle=\"on\" active-class=\"active\" style=\"border-left: 1px solid #ebebeb\r\n\">2nd Floor\r\n        <\/a>\r\n  <\/div>\r\n\r\n  <div class=\"tab-content\">\r\n    <div class=\"tab-pane\" toggleable active-class=\"active\" default=\"active\" id=\"Tab1\" exclusion-group=\"myTabs\">\r\n      <h3 class=\"page-header\" style=\"color:#2f1212;\">All Floors\r\n                <select class=\"pull-right\" style=\"font-size:15px;\" ng-model=\"filterAll\">\r\n                    <option value=\"All\">All<\/option>\r\n                    <option value=\"A\">Available<\/option>\r\n                    <option value=\"O\">Occupied<\/option>\r\n                <\/select><\/h3>\r\n\r\n\r\n      <!--<div class=\"list-group-item\">\r\n                Filter:\r\n                <div class=\"btn-group\">\r\n                    <button type=\"button\" class=\"btn btn-default\">All<\/button>\r\n                    <button type=\"button\" class=\"btn btn-default\"><span class=\"pull-right fa fa-check\" style=\"color:green;\"><\/span><\/button>\r\n                    <button type=\"button\" class=\"btn btn-default\"><span class=\"pull-right fa fa-times\" style=\"color:red;\"><\/span><\/button>\r\n                <\/div>\r\n            <\/div>-->\r\n      <div class=\"list-group\" style=\"margin:10px;\">\r\n        <div class=\"list-group-item\" ng-repeat=\"rm in roomsavailable | filter:allfloor\" style=\"background:none;padding:5px 0px;color:#000;\">\r\n          <h4 class=\"Bg{{rm.AVAILABILITY}}\">ROOM:{{rm.ROOM}}<span class=\"pull-right fa fa-check\"\r\n                                                                            style=\"color:green;\"\r\n                                                                            ng-show=\"rm.AVAILABILITY == 0\"><\/span>\r\n                        <span class=\"pull-right fa fa-times\" style=\"color:red;\" ng-show=\"rm.AVAILABILITY == 1\"><\/span>\r\n                    <\/h4>\r\n        <\/div>\r\n      <\/div>\r\n\r\n    <\/div>\r\n\r\n    <div class=\"tab-pane\" toggleable active-class=\"active\" id=\"Tab2\" exclusion-group=\"myTabs\">\r\n      <h3 class=\"page-header\" style=\"color:#2f1212;\">1st Floor<select class=\"pull-right\" style=\"font-size:15px;\"\r\n                                                                         ng-model=\"fl1\">\r\n                <option value=\"All\">All<\/option>\r\n                <option value=\"A\">Available<\/option>\r\n                <option value=\"O\">Occupied<\/option>\r\n            <\/select><\/h3>\r\n\r\n      <div class=\"list-group\" style=\"margin:10px;\">\r\n        <div class=\"list-group-item\" ng-repeat=\"rm in roomsavailable | filter:floor1\" style=\"background:none;padding:5px 0px;color:#000;\">\r\n          <h4 class=\"Bg{{rm.AVAILABILITY}}\">ROOM:{{rm.ROOM}}<span class=\"pull-right fa fa-check\"\r\n                                                                            style=\"color:green;\"\r\n                                                                            ng-show=\"rm.AVAILABILITY == 0\"><\/span>\r\n                        <span class=\"pull-right fa fa-times\" style=\"color:red;\" ng-show=\"rm.AVAILABILITY == 1\"><\/span>\r\n                    <\/h4>\r\n        <\/div>\r\n      <\/div>\r\n    <\/div>\r\n\r\n    <div class=\"tab-pane\" toggleable active-class=\"active\" id=\"Tab3\" exclusion-group=\"myTabs\">\r\n      <h3 class=\"page-header\" style=\"color:#2f1212;\">2nd Floor<select class=\"pull-right\" style=\"font-size:15px;\"\r\n                                                                         ng-model=\"fl2\">\r\n                <option value=\"All\">All<\/option>\r\n                <option value=\"A\">Available<\/option>\r\n                <option value=\"O\">Occupied<\/option>\r\n            <\/select><\/h3>\r\n\r\n      <div class=\"list-group\" style=\"margin:10px;\">\r\n        <div class=\"list-group-item\" ng-repeat=\"rm in roomsavailable | filter:floor2\" style=\"background:none;padding:5px 0px;color:#000;\">\r\n          <h4 class=\"Bg{{rm.AVAILABILITY}}\">ROOM:{{rm.ROOM}}<span class=\"pull-right fa fa-check\"\r\n                                                                            style=\"color:green;\"\r\n                                                                            ng-show=\"rm.AVAILABILITY == 0\"><\/span>\r\n                        <span class=\"pull-right fa fa-times\" style=\"color:red;\" ng-show=\"rm.AVAILABILITY == 1\"><\/span>\r\n                    <\/h4>\r\n        <\/div>\r\n      <\/div>\r\n    <\/div>\r\n  <\/div>\r\n<\/div>"
        }
      ]
    },
    {
      "id": 108746,
      "name": "Settings2",
      "displayname": "Settings",
      "logo": "MIU/Settings2.png",
      "logourl": "MIU/Settings2.png",
      "description": "Settings",
      "appFeatureType": "Public",
      "roles": null,
      "showInDock": false,
      "showInHome": true,
      "networkrequired": true,
      "analytics": false,
      "pages": 
      [
        {
          "pageid": "Settings2",
          "pageTemplate": "<div><\/div>",
          "datatemplate": "<style type=\"text/css\">\r\n  #fixedHeaderContent {\r\n    display: none;\r\n  }\r\n  \r\n  .footerGroupIcons div div img {\r\n    -webkit-filter: grayscale(100%);\r\n    /* Chrome, Safari, Opera */\r\n    filter: grayscale(100%);\r\n  }\r\n  \r\n  .footerGroupIcons div div a div {\r\n    -webkit-filter: grayscale(100%);\r\n    /* Chrome, Safari, Opera */\r\n    filter: grayscale(100%);\r\n  }\r\n  \r\n  .divSettings {\r\n    -webkit-filter: grayscale(0%);\r\n    /* Chrome, Safari, Opera */\r\n    filter: grayscale(0%);\r\n  }\r\n  \r\n  .backButtonArrow {\r\n    display: none;\r\n  }\r\n  \r\n  .app-body {\r\n    background-color: #efefef;\r\n    background: #efefef;\r\n  }\r\n  \r\n  @import url(http://fonts.googleapis.com/css?family=Open+Sans:300italic,400italic,700italic,300,400,700);\r\n  .openSans {\r\n    font-family: 'Open Sans', sans-serif;\r\n  }\r\n  \r\n  .liItems {\r\n    background: #fff;\r\n    padding: 10px;\r\n    font-size: 16px;\r\n    color: #000;\r\n  }\r\n<\/style>\r\n<div style=\"margin-top:3%;padding:0px;\" class='openSans'>\r\n  <div class='list-group'>\r\n    <div class='list-group-item liItems'>\r\n      Access to Camera\r\n      <switch class=\"pull-right\" ng-change=\"CameraChange\" ng-model=\"camera\" style=\"margin-top:-3px;\"><\/switch>\r\n    <\/div>\r\n    <div class='list-group-item liItems'>\r\n      Location Tracking\r\n      <switch class=\"pull-right\" ng-change=\"locationChange\" ng-model=\"location\" style=\"margin-top:-3px;\"><\/switch>\r\n    <\/div>\r\n    <div class='list-group-item liItems'>\r\n      Push Notification\r\n      <switch class=\"pull-right\" ng-change=\"NotificationChange\" ng-model=\"notification\" style=\"margin-top:-3px;\"><\/switch>\r\n    <\/div>\r\n  <\/div>\r\n  <div style='padding:5px 10px !important;color:#999;font-size:14px;'>\r\n    PRIVACY AND SECURITY\r\n  <\/div>\r\n  <div class='list-group'>\r\n    <div class='list-group-item liItems' ng-click=\"changePassword();\">\r\n      Change Password<i class=\"fa fa-angle-right pull-right\"><\/i>\r\n    <\/div>\r\n  <\/div>\r\n  <div style='padding:5px 10px !important;color:#999;font-size:14px;'>\r\n    ABOUT\r\n  <\/div>\r\n  <div class='list-group'>\r\n    <div class='list-group-item liItems'>\r\n      Version<span class=\"pull-right\">{{metadata.version}}<\/span>\r\n    <\/div>\r\n    <div class='list-group-item liItems' ng-click=\"devicePage()\">\r\n      Device Info<i class=\"fa fa-angle-right pull-right\"><\/i>\r\n    <\/div>\r\n    <div class='list-group-item liItems' ng-click=\"resetmyapp()\">\r\n      Troubleshoot<i class=\"fa fa-angle-right pull-right\"><\/i>\r\n    <\/div>\r\n    <!--<a class='list-group-item liItems'>\r\n                Privacy Policy<i class=\"fa fa-angle-right pull-right\"><\/i>\r\n            <\/a>-->\r\n  <\/div>\r\n\r\n  <div class='list-group'>\r\n    <div class='list-group-item liItems' ng-click=\"logOut()\">\r\n      Sign Out\r\n    <\/div>\r\n  <\/div>\r\n  <br>\r\n<\/div>",
          "pageprocessor": "function pageprocessorSettings2(pagedef, $scope, $routeParams, $compile, $http, $rootScope, $sce, $window, $location) {\r\n    var data1 = $compile($(pagedef.datatemplate))($scope);\r\n    $(\"#appContent\").append(data1);\r\n    \r\n    if($.jStorage.get(\"notificationAllowed\") == null || $.jStorage.get(\"notificationAllowed\") == undefined){\r\n        $.jStorage.set(\"notificationAllowed\",true);\r\n        $scope.notification=true;\r\n    }else{\r\n        $scope.notification=$.jStorage.get(\"notificationAllowed\");\r\n    }\r\n    if($.jStorage.get(\"locationAllowed\") == null || $.jStorage.get(\"locationAllowed\") == undefined){\r\n        $.jStorage.set(\"locationAllowed\",true);\r\n        $scope.location=true;\r\n    }else{\r\n        $scope.location=$.jStorage.get(\"locationAllowed\");\r\n    }\r\n    if($.jStorage.get(\"cameraAllowed\") == null || $.jStorage.get(\"cameraAllowed\") == undefined){\r\n        $.jStorage.set(\"cameraAllowed\",true);\r\n        $scope.camera=true;\r\n    }else{\r\n        $scope.camera=$.jStorage.get(\"cameraAllowed\");\r\n    }\r\n    \r\n    $scope.logOut=function(){\r\n        $scope.confirm=function(btn){\r\n            if(btn == 1){\r\n            $.jStorage.set(\"userdetails\",null);\r\n            $location.path(\"/app/SignIn2/SignIn2\");\r\n            $.jStorage.deleteKey(\"UserProfile\");\r\n\r\n            $.jStorage.deleteKey(\"profileData\");\r\n    }else{\r\n    //$location.path(\"/home\");\r\n    }\r\n    $scope.$apply();\r\n    }\r\n    navigator.notification.confirm(\"Are you sure you want to logout?\",$scope.confirm,'Logout',['Yes','No']);\r\n    }\r\n\r\n    $scope.$watch('notification', function (newVal) {\r\n        $.jStorage.set(\"notificationAllowed\",$scope.notification);\r\n        if($scope.notification == false){\r\n        parsePlugin.unsubscribe('IIITD', function(msg) {\r\n             }, function(e) {\r\n             });\r\n        }\r\n    });\r\n\r\n    $scope.$watch('location', function (newVal) {\r\n        $.jStorage.set(\"locationAllowed\",$scope.location);\r\n    });\r\n\r\n    $scope.$watch('camera', function (newVal) {\r\n        $.jStorage.set(\"cameraAllowed\",$scope.camera);\r\n    });\r\n\r\n    $scope.resetApp=function(btn){\r\n        if(btn == 1){\r\n            var tenant = MyCampusApp.config.tenant;\r\n                $.jStorage.deleteKey(tenant + '-metadata');\r\n                $location.path(\"/home\");\r\n                $scope.$apply();\r\n        }\r\n    }\r\n    $scope.resetmyapp = function () {\r\n        navigator.notification.confirm(\"Resetting your app clears all information associated with your app and initializes it with the default setting.  You can use this feature if your app is not functioning correctly. This feature requires network connectivity.\",$scope.resetApp,'Reset App',['Yes','No']);\r\n    }\r\n\r\n    $scope.devicePage=function(){\r\n        $location.path(\"/app/DevicePage/DevicePage\");\r\n    }\r\n    $scope.changePassword=function(){\r\n        $location.path(\"/app/ChangePassword/ChangePassword\");   \r\n    }\r\n\r\n}",
          "endpoint": "notdefined"
        }
      ]
    }
  ],
  "pages": 
  [
  ]
}